<svg width="9" height="12" viewBox="0 0 9 12" fill="none" xmlns="http://www.w3.org/2000/svg">
<path d="M8.71875 3.42857H0.28125C0.126563 3.42857 0 3.57321 0 3.75V5.25C0 5.42679 0.126563 5.57143 0.28125 5.57143H3.5625V11.6786C3.5625 11.8554 3.68906 12 3.84375 12H5.15625C5.31094 12 5.4375 11.8554 5.4375 11.6786V5.57143H8.71875C8.87344 5.57143 9 5.42679 9 5.25V3.75C9 3.57321 8.87344 3.42857 8.71875 3.42857ZM8.71875 0H0.28125C0.126563 0 0 0.144643 0 0.321429V1.82143C0 1.99821 0.126563 2.14286 0.28125 2.14286H8.71875C8.87344 2.14286 9 1.99821 9 1.82143V0.321429C9 0.144643 8.87344 0 8.71875 0Z" fill="#1E87F0"/>
</svg>
